{
    "fluentMethods": true,
    "relationships": [],
    "fields": [
        {
            "fieldName": "degreename",
            "fieldType": "String",
            "fieldValidateRules": [
                "required"
            ]
        }
    ],
    "changelogDate": "20180308041940",
    "entityTableName": "degree",
    "dto": "mapstruct",
    "pagination": "pagination",
    "service": "serviceImpl",
    "jpaMetamodelFiltering": false
}