{
    "fluentMethods": true,
    "relationships": [
        {
            "relationshipType": "many-to-one",
            "relationshipName": "degree",
            "otherEntityName": "degree",
            "otherEntityField": "id"
        },
        {
            "relationshipType": "many-to-one",
            "relationshipName": "specialization",
            "otherEntityName": "specialization",
            "otherEntityField": "id"
        }
    ],
    "fields": [
        {
            "fieldName": "firstname",
            "fieldType": "String",
            "fieldValidateRules": [
                "required"
            ]
        },
        {
            "fieldName": "lastname",
            "fieldType": "String",
            "fieldValidateRules": [
                "required"
            ]
        },
        {
            "fieldName": "status",
            "fieldType": "Process_Status",
            "fieldValues": "ACTIVE,DEACTIVE"
        },
        {
            "fieldName": "photo",
            "fieldType": "byte[]",
            "fieldTypeBlobContent": "image"
        },
        {
            "fieldName": "gender",
            "fieldType": "Gender",
            "fieldValues": "MALE,FEMALE,OTHER",
            "fieldValidateRules": [
                "required"
            ]
        },
        {
            "fieldName": "dateofbirth",
            "fieldType": "LocalDate"
        },
        {
            "fieldName": "address",
            "fieldType": "String",
            "fieldValidateRules": [
                "required"
            ]
        },
        {
            "fieldName": "mobileno",
            "fieldType": "String",
            "fieldValidateRules": [
                "required"
            ]
        },
        {
            "fieldName": "bloodgroup",
            "fieldType": "String"
        },
        {
            "fieldName": "exprience",
            "fieldType": "Float",
            "fieldValidateRules": [
                "required"
            ]
        },
        {
            "fieldName": "licenceno",
            "fieldType": "String",
            "fieldValidateRules": [
                "required"
            ]
        },
        {
            "fieldName": "documents",
            "fieldType": "byte[]",
            "fieldTypeBlobContent": "any",
            "fieldValidateRules": [
                "required"
            ]
        },
        {
            "fieldName": "googleplusid",
            "fieldType": "String"
        },
        {
            "fieldName": "facebookid",
            "fieldType": "String"
        },
        {
            "fieldName": "twitterid",
            "fieldType": "String"
        },
        {
            "fieldName": "consultationcharge",
            "fieldType": "Integer",
            "fieldValidateRules": [
                "required"
            ]
        }
    ],
    "changelogDate": "20180308041942",
    "entityTableName": "doctor",
    "dto": "mapstruct",
    "pagination": "pagination",
    "service": "serviceImpl",
    "jpaMetamodelFiltering": false
}