{
    "fluentMethods": true,
    "relationships": [
        {
            "relationshipType": "many-to-one",
            "relationshipName": "doctor",
            "otherEntityName": "doctor",
            "otherEntityField": "id"
        }
    ],
    "fields": [
        {
            "fieldName": "workingday",
            "fieldType": "Days",
            "fieldValues": "SUNDAY,MONDAY,TUESDAY,WEDNESDAY,THURSDAY,FRIDAY,SATURDAY",
            "fieldValidateRules": [
                "required"
            ]
        },
        {
            "fieldName": "fromtime",
            "fieldType": "String",
            "fieldValidateRules": [
                "required"
            ]
        },
        {
            "fieldName": "totime",
            "fieldType": "String",
            "fieldValidateRules": [
                "required"
            ]
        },
        {
            "fieldName": "noofpatient",
            "fieldType": "Integer",
            "fieldValidateRules": [
                "required"
            ]
        },
        {
            "fieldName": "status",
            "fieldType": "Schedule_Status",
            "fieldValues": "ENABLE,DISABLE",
            "fieldValidateRules": [
                "required"
            ]
        }
    ],
    "changelogDate": "20180308041945",
    "entityTableName": "doctor_schedule",
    "dto": "mapstruct",
    "pagination": "pagination",
    "service": "serviceImpl",
    "jpaMetamodelFiltering": false
}