{
    "fluentMethods": true,
    "relationships": [
        {
            "relationshipType": "one-to-one",
            "relationshipName": "orderMedicine",
            "otherEntityName": "orderMedicine",
            "ownerSide": false,
            "otherEntityRelationshipName": "pharmacist"
        }
    ],
    "fields": [
        {
            "fieldName": "shopname",
            "fieldType": "String",
            "fieldValidateRules": [
                "required"
            ]
        },
        {
            "fieldName": "status",
            "fieldType": "Process_Status",
            "fieldValues": "ACTIVE,DEACTIVE"
        },
        {
            "fieldName": "shopaddress",
            "fieldType": "String",
            "fieldValidateRules": [
                "required"
            ]
        },
        {
            "fieldName": "phoneno",
            "fieldType": "String",
            "fieldValidateRules": [
                "required"
            ]
        },
        {
            "fieldName": "licenceno",
            "fieldType": "String",
            "fieldValidateRules": [
                "required"
            ]
        },
        {
            "fieldName": "documents",
            "fieldType": "byte[]",
            "fieldTypeBlobContent": "any",
            "fieldValidateRules": [
                "required"
            ]
        }
    ],
    "changelogDate": "20180308041944",
    "entityTableName": "pharmacist",
    "dto": "mapstruct",
    "pagination": "pagination",
    "service": "serviceImpl",
    "jpaMetamodelFiltering": false
}